^C:\USERS\MERESSE\SOURCE\REPOS\HOMEWORK_18\DEBUG\HOMEWORK_18.OBJ
C:\USERS\MERESSE\SOURCE\REPOS\HOMEWORK_18\DEBUG\HOMEWORK_18.ILK
C:\USERS\MERESSE\SOURCE\REPOS\HOMEWORK_18\DEBUG\HOMEWORK_18.EXE
C:\USERS\MERESSE\SOURCE\REPOS\HOMEWORK_18\DEBUG\HOMEWORK_18.PDB
